G04 #@! TF.GenerationSoftware,KiCad,Pcbnew,5.1.2*
G04 #@! TF.CreationDate,2019-08-06T23:19:49+02:00*
G04 #@! TF.ProjectId,oszilla,6f737a69-6c6c-4612-9e6b-696361645f70,rev?*
G04 #@! TF.SameCoordinates,Original*
G04 #@! TF.FileFunction,Paste,Top*
G04 #@! TF.FilePolarity,Positive*
%FSLAX46Y46*%
G04 Gerber Fmt 4.6, Leading zero omitted, Abs format (unit mm)*
G04 Created by KiCad (PCBNEW 5.1.2) date 2019-08-06 23:19:49*
%MOMM*%
%LPD*%
G04 APERTURE LIST*
G04 APERTURE END LIST*
M02*
